<?xml version="1.0" encoding="utf-8"?>
<!-- Generator: Adobe Illustrator 18.1.1, SVG Export Plug-In . SVG Version: 6.00 Build 0)  -->
<svg version="1.1" id="Layer_1" xmlns="http://www.w3.org/2000/svg" xmlns:xlink="http://www.w3.org/1999/xlink" x="0px" y="0px"
	 width="512px" height="512px" viewBox="56 -106 512 512" enable-background="new 56 -106 512 512" xml:space="preserve">
<polygon fill="#870541" points="216,9.4 236.7,-10 408,150 236.7,310 216,290.7 366.5,150 "/>
</svg>
